file,Ca-condition,P-condition
H100Rep6,H,100
H100Rep4.8,H,100
L600Rep2.8,L,600
L100Rep3,L,100
L600Rep1,L,600
L100Rep5,L,100
L600Rep3,L,600
L100Rep5.8,L,100
L600Rep5.8,L,600
H100Rep2,H,100
H600Rep3,H,600
H100Rep4.8,H,100
H100Rep5,H,100
L100Rep1.8,L,100
L100Rep4,L,100
L600Rep1.8,L,600
L600Rep4,L,600
H100Rep3,H,100
L100Rep1,L,100
H600Rep2.8,H,600
H600Rep5,H,600
H600Rep1.8,H,600
H600Rep4,H,600
H600Rep6,H,600
