Treatment,Replicate,Gene ,Function,LFC
"LP,HCa",1,DAPPUDRAFT_220751,Unknown ,2.807354922
"LP,HCa",1,DAPPUDRAFT_317311,Phosphorus metabolism ,5.762880293
"LP,HCa",1,DAPPUDRAFT_223101,Insect cuticle protein ,-1.508772938
"LP,HCa",1,DAPPUDRAFT_67675,Secondary metabolites biosynthesis,4.934673752
"LP,HCa",1,DAPPUDRAFT_7769,Energy production and conservation ,2.522498414
"LP,HCa",2,DAPPUDRAFT_220751,Unknown ,2.906890596
"LP,HCa",2,DAPPUDRAFT_317311,Phosphorus metabolism ,6.397460726
"LP,HCa",2,DAPPUDRAFT_223101,Insect cuticle protein ,-0.648950596
"LP,HCa",2,DAPPUDRAFT_67675,Secondary metabolites biosynthesis,5.757112167
"LP,HCa",2,DAPPUDRAFT_7769,Energy production and conservation ,3.094636874
"LP,HCa",3,DAPPUDRAFT_220751,Unknown ,3.357552005
"LP,HCa",3,DAPPUDRAFT_317311,Phosphorus metabolism ,6.148730779
"LP,HCa",3,DAPPUDRAFT_223101,Insect cuticle protein ,-0.771807343
"LP,HCa",3,DAPPUDRAFT_67675,Secondary metabolites biosynthesis,5.055282436
"LP,HCa",3,DAPPUDRAFT_7769,Energy production and conservation ,2.89214401
"LP,HCa",4,DAPPUDRAFT_220751,Unknown ,2.754887502
"LP,HCa",4,DAPPUDRAFT_317311,Phosphorus metabolism ,5.334496768
"LP,HCa",4,DAPPUDRAFT_223101,Insect cuticle protein ,-1.21926632
"LP,HCa",4,DAPPUDRAFT_67675,Secondary metabolites biosynthesis,4.894817763
"LP,HCa",4,DAPPUDRAFT_7769,Energy production and conservation ,2.16175107
"LP,HCa",5,DAPPUDRAFT_220751,Unknown ,3.459431619
"LP,HCa",5,DAPPUDRAFT_317311,Phosphorus metabolism ,5.187846909
"LP,HCa",5,DAPPUDRAFT_223101,Insect cuticle protein ,-2.356769844
"LP,HCa",5,DAPPUDRAFT_67675,Secondary metabolites biosynthesis,4.614709844
"LP,HCa",5,DAPPUDRAFT_7769,Energy production and conservation ,2.597137215
"LP,HCa",6,DAPPUDRAFT_220751,Unknown ,2.247927513
"LP,HCa",6,DAPPUDRAFT_317311,Phosphorus metabolism ,5.685099172
"LP,HCa",6,DAPPUDRAFT_223101,Insect cuticle protein ,0.179283056
"LP,HCa",6,DAPPUDRAFT_67675,Secondary metabolites biosynthesis,4.528779665
"LP,HCa",6,DAPPUDRAFT_7769,Energy production and conservation ,1.679599375
"HP,LCa",1,DAPPUDRAFT_220751,Unknown ,2.321928095
"HP,LCa",1,DAPPUDRAFT_317311,Phosphorus metabolism ,1.584962501
"HP,LCa",1,DAPPUDRAFT_223101,Insect cuticle protein ,-3.941732345
"HP,LCa",1,DAPPUDRAFT_67675,Secondary metabolites biosynthesis,0.662965013
"HP,LCa",1,DAPPUDRAFT_7769,Energy production and conservation ,2.077358883
"HP,LCa",2,DAPPUDRAFT_220751,Unknown ,3.129283017
"HP,LCa",2,DAPPUDRAFT_317311,Phosphorus metabolism ,1.070389328
"HP,LCa",2,DAPPUDRAFT_223101,Insect cuticle protein ,-3.678697939
"HP,LCa",2,DAPPUDRAFT_67675,Secondary metabolites biosynthesis,1.459431619
"HP,LCa",2,DAPPUDRAFT_7769,Energy production and conservation ,1.430239906
"HP,LCa",3,DAPPUDRAFT_220751,Unknown ,2.857980995
"HP,LCa",3,DAPPUDRAFT_317311,Phosphorus metabolism ,0.847996907
"HP,LCa",3,DAPPUDRAFT_223101,Insect cuticle protein ,-4.26366044
"HP,LCa",3,DAPPUDRAFT_67675,Secondary metabolites biosynthesis,1.222392421
"HP,LCa",3,DAPPUDRAFT_7769,Energy production and conservation ,1.225881407
"HP,LCa",4,DAPPUDRAFT_220751,Unknown ,2.459431619
"HP,LCa",4,DAPPUDRAFT_317311,Phosphorus metabolism ,-1.736965594
"HP,LCa",4,DAPPUDRAFT_223101,Insect cuticle protein ,-6.26366044
"HP,LCa",4,DAPPUDRAFT_67675,Secondary metabolites biosynthesis,0.222392421
"HP,LCa",4,DAPPUDRAFT_7769,Energy production and conservation ,1.768408642
"HP,LCa",5,DAPPUDRAFT_220751,Unknown ,2.95419631
"HP,LCa",5,DAPPUDRAFT_317311,Phosphorus metabolism ,1.169925001
"HP,LCa",5,DAPPUDRAFT_223101,Insect cuticle protein ,-3.093735438
"HP,LCa",5,DAPPUDRAFT_67675,Secondary metabolites biosynthesis,1
"HP,LCa",5,DAPPUDRAFT_7769,Energy production and conservation ,2.872244453
"HP,LCa",6,DAPPUDRAFT_220751,Unknown ,2.459431619
"HP,LCa",6,DAPPUDRAFT_317311,Phosphorus metabolism ,1.169925001
"HP,LCa",6,DAPPUDRAFT_223101,Insect cuticle protein ,-4.678697939
"HP,LCa",6,DAPPUDRAFT_67675,Secondary metabolites biosynthesis,0.415037499
"HP,LCa",6,DAPPUDRAFT_7769,Energy production and conservation ,2.443786438
"LP,LCa",1,DAPPUDRAFT_220751,Unknown ,4.129283017
"LP,LCa",1,DAPPUDRAFT_317311,Phosphorus metabolism ,4.361066489
"LP,LCa",1,DAPPUDRAFT_223101,Insect cuticle protein ,-5.26366044
"LP,LCa",1,DAPPUDRAFT_67675,Secondary metabolites biosynthesis,4.291554446
"LP,LCa",1,DAPPUDRAFT_7769,Energy production and conservation ,3.21801929
"LP,LCa",2,DAPPUDRAFT_220751,Unknown ,5.417852515
"LP,LCa",2,DAPPUDRAFT_317311,Phosphorus metabolism ,5.031218731
"LP,LCa",2,DAPPUDRAFT_223101,Insect cuticle protein ,-6.26366044
"LP,LCa",2,DAPPUDRAFT_67675,Secondary metabolites biosynthesis,5.266786541
"LP,LCa",2,DAPPUDRAFT_7769,Energy production and conservation ,4.287281952
"LP,LCa",3,DAPPUDRAFT_220751,Unknown ,3.754887502
"LP,LCa",3,DAPPUDRAFT_317311,Phosphorus metabolism ,3.87774425
"LP,LCa",3,DAPPUDRAFT_223101,Insect cuticle protein ,-6.26366044
"LP,LCa",3,DAPPUDRAFT_67675,Secondary metabolites biosynthesis,3.073248982
"LP,LCa",3,DAPPUDRAFT_7769,Energy production and conservation ,3.503219351
"LP,LCa",4,DAPPUDRAFT_220751,Unknown ,4.14974712
"LP,LCa",4,DAPPUDRAFT_317311,Phosphorus metabolism ,4.722466024
"LP,LCa",4,DAPPUDRAFT_223101,Insect cuticle protein ,-5.26366044
"LP,LCa",4,DAPPUDRAFT_67675,Secondary metabolites biosynthesis,4.029747343
"LP,LCa",4,DAPPUDRAFT_7769,Energy production and conservation ,3.437029072
"LP,LCa",5,DAPPUDRAFT_220751,Unknown ,3.357552005
"LP,LCa",5,DAPPUDRAFT_317311,Phosphorus metabolism ,3.529820947
"LP,LCa",5,DAPPUDRAFT_223101,Insect cuticle protein ,-6.26366044
"LP,LCa",5,DAPPUDRAFT_67675,Secondary metabolites biosynthesis,3.014950341
"LP,LCa",5,DAPPUDRAFT_7769,Energy production and conservation ,2.735742453
"LP,LCa",6,DAPPUDRAFT_220751,Unknown ,3.781359714
"LP,LCa",6,DAPPUDRAFT_317311,Phosphorus metabolism ,4.193771743
"LP,LCa",6,DAPPUDRAFT_223101,Insect cuticle protein ,-6.26366044
"LP,LCa",6,DAPPUDRAFT_67675,Secondary metabolites biosynthesis,3.48112669
"LP,LCa",6,DAPPUDRAFT_7769,Energy production and conservation ,3.233700912
